{
    "Id_Usuario": "",
    "Valores_Bandas": {
        "901.235778": "",
        "906.43021": "",
        "912.912456": "",
        "918.089617": "",
        "924.550275": "",
        "929.710166": "",
        "936.149235": "",
        "941.291855": "",
        "946.4268": "",
        "952.834686": "",
        "957.95236": "",
        "964.338658": "",
        "969.439061": "",
        "974.531788": "",
        "980.886903": "",
        "985.96236": "",
        "992.295886": "",
        "997.354072": "",
        "1003.66601": "",
        "1008.706926": "",
        "1013.740165": "",
        "1020.02092": "",
        "1025.036889": "",
        "1031.296056": "",
        "1036.294754": "",
        "1041.285777": "",
        "1047.513761": "",
        "1052.487512": "",
        "1058.693908": "",
        "1063.650389": "",
        "1068.599194": "",
        "1074.774407": "",
        "1079.705941": "",
        "1085.859565": "",
        "1090.773829": "",
        "1096.905865": "",
        "1101.802858": "",
        "1106.692176": "",
        "1112.793028": "",
        "1117.665075": "",
        "1123.74434": "",
        "1128.599116": "",
        "1133.446216": "",
        "1139.494298": "",
        "1144.324127": "",
        "1150.35062": "",
        "1155.163179": "",
        "1161.168084": "",
        "1165.963373": "",
        "1170.750985": "",
        "1176.724707": "",
        "1181.495049": "",
        "1187.447182": "",
        "1192.200253": "",
        "1196.945649": "",
        "1202.866599": "",
        "1207.594724": "",
        "1213.494086": "",
        "1218.20494": "",
        "1224.082714": "",
        "1228.776297": "",
        "1233.462205": "",
        "1239.308795": "",
        "1243.977432": "",
        "1249.802435": "",
        "1254.453801": "",
        "1259.097492": "",
        "1264.891311": "",
        "1269.517731": "",
        "1275.289961": "",
        "1279.899111": "",
        "1284.500584": "",
        "1290.241632": "",
        "1294.825835": "",
        "1300.545294": "",
        "1305.112226": "",
        "1310.810098": "",
        "1315.359759": "",
        "1319.901745": "",
        "1325.568433": "",
        "1330.093148": "",
        "1335.738248": "",
        "1340.245692": "",
        "1344.745461": "",
        "1350.359377": "",
        "1354.841875": "",
        "1360.434203": "",
        "1364.899431": "",
        "1370.470171": "",
        "1374.918127": "",
        "1379.358408": "",
        "1384.897965": "",
        "1389.320975": "",
        "1394.838944": "",
        "1399.244684": "",
        "1403.642747": "",
        "1409.129533": "",
        "1413.510326": "",
        "1418.975523": "",
        "1423.339046": "",
        "1428.782654": "",
        "1433.128906": "",
        "1437.467482": "",
        "1442.879908": "",
        "1447.201213": "",
        "1452.592051": "",
        "1456.896085": "",
        "1461.192444": "",
        "1466.552099": "",
        "1470.831187": "",
        "1476.169253": "",
        "1480.431071": "",
        "1484.685212": "",
        "1489.992095": "",
        "1494.228966": "",
        "1499.514261": "",
        "1503.733862": "",
        "1508.997568": "",
        "1513.199898": "",
        "1517.394552": "",
        "1522.627075": "",
        "1526.804458": "",
        "1532.015393": "",
        "1536.175506": "",
        "1540.327943": "",
        "1545.507695": "",
        "1549.642861": "",
        "1554.801025": "",
        "1558.91892": "",
        "1564.055495": "",
        "1568.15612": "",
        "1572.249069": "",
        "1577.354462": "",
        "1581.43014": "",
        "1586.513944": "",
        "1590.572352": "",
        "1594.623084": "",
        "1599.675704": "",
        "1603.709166": "",
        "1608.740198": "",
        "1612.756389": "",
        "1616.764904": "",
        "1621.764753": "",
        "1625.755997": "",
        "1630.734259": "",
        "1634.708232": "",
        "1639.664905": "",
        "1643.621608": "",
        "1647.570635": "",
        "1652.496125": "",
        "1656.427881": "",
        "1661.331782": ""
    },
    "Resultado": "",
    "Assertividade": "",
    "tempo de execução": "",
    "Cultura": "",
    "Data": ""
}